ST558 Project 1 - Summer 2026
…
str(trial_data)

census [103,516 × 6] (S3: census/tbl_df/tbl/data.frame)
 $ SEX  : Factor w/ 2 levels "Male","Female": 1 1 1 1 1 1 1 1 2 2 ...
 $ SCHL : Factor w/ 25 levels "N/A (less than 3 years old)",..: 15 17 17 10 2 20 12 20 20 21 ...
 $ JWAP : 'hms' num [1:103516] NA NA NA NA ...
  ..- attr(*, "units")= chr "secs"
 $ JWDP : 'hms' num [1:103516] NA NA NA NA ...
  ..- attr(*, "units")= chr "secs"
 $ PWGTP: num [1:103516] 70 70 16 80 7 52 82 31 72 62 ...
 $ state: chr [1:103516] "37" "37" "37" "37" ...

head(trial_data, 50)

# A tibble: 50 × 6
   SEX    SCHL                                         JWAP   JWDP   PWGTP state
   <fct>  <fct>                                        <time> <time> <dbl> <chr>
 1 Male   Grade 11                                        NA     NA     70 37   
 2 Male   Regular high school diploma                     NA     NA     70 37   
 3 Male   Regular high school diploma                     NA     NA     16 37   
 4 Male   Grade 6                                         NA     NA     80 37   
 5 Male   No schooling completed                          NA     NA      7 37   
 6 Male   1 or more years of college credit, no degree    NA     NA     52 37   
 7 Male   Grade 8                                         NA     NA     82 37   
 8 Male   1 or more years of college credit, no degree    NA     NA     31 37   
 9 Female 1 or more years of college credit, no degree    NA     NA     72 37   
10 Female Associate's degree                              NA     NA     62 37   
# ℹ 40 more rows
…
project_summary <- summary(trial_multiyear_data)

Warning: Returning more (or less) than 1 row per `summarise()` group was deprecated in
dplyr 1.1.0.
ℹ Please use `reframe()` instead.
ℹ When switching from `summarise()` to `reframe()`, remember that `reframe()`
  always returns an ungrouped data frame and adjust accordingly.

project_summary$Categorical_Summary

# A tibble: 36 × 3
   variable level                                                     n
   <chr>    <fct>                                                 <int>
 1 FER      N/A (less than 15 years/greater than 50 years/ male) 163721
 2 FER      Yes                                                    2140
 3 FER      No                                                    41992
 4 HHL      N/A (GQ/vacant)                                       11477
 5 HHL      English Only                                         168715
 6 HHL      Spanish                                               15884
 7 HHL      Other Indo-European languages                          5643
 8 HHL      Asian and Pacific Island languages                     4592
 9 HHL      Other Language                                         1542
10 SCHL     N/A (less than 3 years old)                            5520
# ℹ 26 more rows
…
